test/vcd/MAC.vcd
$date
2020-07-28T22:51+0000
$end
$version
0.2
$end
$comment

$end
$timescale 1ns  $end
$scope module MAC $end
 $var wire 1 ! io_south_valid $end
 $var wire 1 " io_west_ready $end
 $var wire 1 # busy $end
 $var wire 1 $ _GEN_2 $end
 $var wire 1 % _T $end
 $var wire 32 & mac_buf $end
 $var wire 16 ' io_west_bits $end
 $var wire 16 ( _GEN_5 $end
 $var wire 1 ) io_north_valid $end
 $var wire 1 * _GEN_8 $end
 $var wire 32 + io_south_bits $end
 $var wire 1 , io_east_ready $end
 $var wire 16 - weight $end
 $var wire 32 . _GEN_12 $end
 $var wire 32 / _GEN_7 $end
 $var wire 1 0 io_weight_input_ready $end
 $var wire 16 1 io_weight_input_bits $end
 $var wire 1 2 _GEN_1 $end
 $var wire 1 3 io_west_valid $end
 $var wire 1 4 weight_loaded $end
 $var wire 16 5 east_reg $end
 $var wire 1 6 io_south_ready $end
 $var wire 1 7 clock $end
 $var wire 16 8 north_reg $end
 $var wire 1 9 io_north_ready $end
 $var wire 16 : io_east_bits $end
 $var wire 1 ; comp_done $end
 $var wire 16 < io_north_bits $end
 $var wire 1 = _GEN_11 $end
 $var wire 1 > io_east_valid $end
 $var wire 16 ? _GEN_6 $end
 $var wire 16 @ _GEN_0 $end
 $var wire 1 A _GEN_9 $end
 $var wire 1 B io_weight_input_valid $end
 $var wire 1 C reset $end
$upscope $end
$enddefinitions $end
$dumpvars
0%
b00000000000000000000000000000000 &
0C
0;
b0000000000000000 -
0=
0>
06
0!
07
b0000000000000000 '
0"
b0000000000000000 (
0#
09
b0000000000000000 ?
02
b0000000000000000 @
b0000000000000000 8
03
04
b0000000000000000 :
b00000000000000000000000000000000 .
b00000000000000000000000000000000 /
b0000000000000000 <
b0000000000000000 5
00
0)
0*
b00000000000000000000000000000000 +
b0000000000000000 1
0A
0,
0$
0B
$end
#0
10
1%
1"
1C
19
#1
17
#6
07
#11
17
#16
07
#21
17
#26
07
#31
17
#36
07
#41
17
#46
1B
0C
b0000100011100110 1
b0000100011100110 @
12
07
#51
00
b0000100011100110 -
0%
14
17
#56
0B
07
#61
17
#66
13
b1001101111010010 ?
b1001101111010010 <
0"
b1111000110100111 '
09
1$
b1111000110100111 (
07
1A
1)
#71
b11111111111111111001101111010010 .
b1001101111010010 8
b1111000110100111 5
1#
1*
1=
b1111000110100111 :
17
b11111111011111111110111111011100 /
0A
#76
03
07
0)
#81
1!
1"
b11111111011111111110111111011100 &
0#
19
0$
b11111111011111111110111111011100 +
0=
17
1>
1;
#86
07
#91
0!
0*
17
0>
0;
#96
13
b1011000011011100 ?
b1011000011011100 <
0"
b0001110100100011 '
09
1$
b0001110100100011 (
07
1A
1)
#101
b11111111111111111011000011011100 .
b1011000011011100 8
b0001110100100011 5
1#
1*
1=
b0001110100100011 :
17
b00000001000000101111011001001110 /
0A
#106
03
07
0)
#111
1!
1"
b00000001000000101111011001001110 &
0#
19
0$
b00000001000000101111011001001110 +
0=
17
1>
1;
#116
07
#121
0!
0*
17
0>
0;
#126
13
b1101100000101010 ?
b1101100000101010 <
0"
b1111001110110000 '
09
1$
b1111001110110000 (
07
1A
1)
#131
b11111111111111111101100000101010 .
b1101100000101010 8
b1111001110110000 5
1#
1*
1=
b1111001110110000 :
17
b11111111100100100100100001001010 /
0A
#136
03
07
0)
#141
1!
1"
b11111111100100100100100001001010 &
0#
19
0$
b11111111100100100100100001001010 +
0=
17
1>
1;
#146
07
#151
0!
0*
17
0>
0;
#156
13
b0001111110100100 ?
b0001111110100100 <
0"
b0100101100100000 '
09
1$
b0100101100100000 (
07
1A
1)
#161
b00000000000000000001111110100100 .
b0001111110100100 8
b0100101100100000 5
1#
1*
1=
b0100101100100000 :
17
b00000010100111001001111001100100 /
0A
#166
03
07
0)
#171
1!
1"
b00000010100111001001111001100100 &
0#
19
0$
b00000010100111001001111001100100 +
0=
17
1>
1;
#176
07
#181
0!
0*
17
0>
0;
#186
13
b0100100100101100 ?
b0100100100101100 <
0"
b0100001110000100 '
09
1$
b0100001110000100 (
07
1A
1)
#191
b00000000000000000100100100101100 .
b0100100100101100 8
b0100001110000100 5
1#
1*
1=
b0100001110000100 :
17
b00000010010110010001000111000100 /
0A
#196
03
07
0)
#201
1!
1"
b00000010010110010001000111000100 &
0#
19
0$
b00000010010110010001000111000100 +
0=
17
1>
1;
#206
07
#211
0!
0*
17
0>
0;
#216
13
b1011101101111010 ?
b1011101101111010 <
0"
b1111101001101110 '
09
1$
b1111101001101110 (
07
1A
1)
#221
b11111111111111111011101101111010 .
b1011101101111010 8
b1111101001101110 5
1#
1*
1=
b1111101001101110 :
17
b11111111110011100010101001001110 /
0A
#226
03
07
0)
#231
1!
1"
b11111111110011100010101001001110 &
0#
19
0$
b11111111110011100010101001001110 +
0=
17
1>
1;
#236
07
#241
0!
0*
17
0>
0;
#246
13
b1010011010111001 ?
b1010011010111001 <
0"
b1111001001010110 '
09
1$
b1111001001010110 (
07
1A
1)
#251
b11111111111111111010011010111001 .
b1010011010111001 8
b1111001001010110 5
1#
1*
1=
b1111001001010110 :
17
b11111111100001100000111111111101 /
0A
#256
03
07
0)
#261
1!
1"
b11111111100001100000111111111101 &
0#
19
0$
b11111111100001100000111111111101 +
0=
17
1>
1;
#266
07
#271
0!
0*
17
0>
0;
#276
13
b1010010111010111 ?
b1010010111010111 <
0"
b0101011110010101 '
09
1$
b0101011110010101 (
07
1A
1)
#281
b11111111111111111010010111010111 .
b1010010111010111 8
b0101011110010101 5
1#
1*
1=
b0101011110010101 :
17
b00000011000010101111110110110101 /
0A
#286
03
07
0)
#291
1!
1"
b00000011000010101111110110110101 &
0#
19
0$
b00000011000010101111110110110101 +
0=
17
1>
1;
#296
07
#301
0!
0*
17
0>
0;
#306
13
b1100101101000101 ?
b1100101101000101 <
0"
b1101011010111001 '
09
1$
b1101011010111001 (
07
1A
1)
#311
b11111111111111111100101101000101 .
b1100101101000101 8
b1101011010111001 5
1#
1*
1=
b1101011010111001 :
17
b11111110100100000111110101111011 /
0A
#316
03
07
0)
#321
1!
1"
b11111110100100000111110101111011 &
0#
19
0$
b11111110100100000111110101111011 +
0=
17
1>
1;
#326
07
#331
0!
0*
17
0>
0;
#336
13
b1001010110010000 ?
b1001010110010000 <
0"
b1100110010101101 '
09
1$
b1100110010101101 (
07
1A
1)
#341
b11111111111111111001010110010000 .
b1001010110010000 8
b1100110010101101 5
1#
1*
1=
b1100110010101101 :
17
b11111110001101101110000011111110 /
0A
#346
03
07
0)
#351
1!
1"
b11111110001101101110000011111110 &
0#
19
0$
b11111110001101101110000011111110 +
0=
17
1>
1;
#356
07
#361
0!
0*
17
0>
0;
#366
13
b1111111110110011 ?
b1111111110110011 <
0"
b0001100110010110 '
09
1$
b0001100110010110 (
07
1A
1)
#371
b11111111111111111111111110110011 .
b1111111110110011 8
b0001100110010110 5
1#
1*
1=
b0001100110010110 :
17
b00000000111000111010110001110111 /
0A
#376
03
07
0)
#381
1!
1"
b00000000111000111010110001110111 &
0#
19
0$
b00000000111000111010110001110111 +
0=
17
1>
1;
#386
07
#391
0!
0*
17
0>
0;
#396
13
b1110110101001000 ?
b1110110101001000 <
0"
b1000100011011101 '
09
1$
b1000100011011101 (
07
1A
1)
#401
b11111111111111111110110101001000 .
b1110110101001000 8
b1000100011011101 5
1#
1*
1=
b1000100011011101 :
17
b11111011110110111100101111010110 /
0A
#406
03
07
0)
#411
1!
1"
b11111011110110111100101111010110 &
0#
19
0$
b11111011110110111100101111010110 +
0=
17
1>
1;
#416
07
#421
0!
0*
17
0>
0;
#426
13
b0111100000111011 ?
b0111100000111011 <
0"
b1111010010101000 '
09
1$
b1111010010101000 (
07
1A
1)
#431
b00000000000000000111100000111011 .
b0111100000111011 8
b1111010010101000 5
1#
1*
1=
b1111010010101000 :
17
b11111111100110111000011100101011 /
0A
#436
03
07
0)
#441
1!
1"
b11111111100110111000011100101011 &
0#
19
0$
b11111111100110111000011100101011 +
0=
17
1>
1;
#446
07
#451
0!
0*
17
0>
0;
#456
13
b0001100000101001 ?
b0001100000101001 <
0"
b1101010100100110 '
09
1$
b1101010100100110 (
07
1A
1)
#461
b00000000000000000001100000101001 .
b0001100000101001 8
b1101010100100110 5
1#
1*
1=
b1101010100100110 :
17
b11111110100000101100100001001101 /
0A
#466
03
07
0)
#471
1!
1"
b11111110100000101100100001001101 &
0#
19
0$
b11111110100000101100100001001101 +
0=
17
1>
1;
#476
07
#481
0!
0*
17
0>
0;
#486
13
b0000000110011011 ?
b0000000110011011 <
0"
b1011100000110111 '
09
1$
b1011100000110111 (
07
1A
1)
#491
b00000000000000000000000110011011 .
b0000000110011011 8
b1011100000110111 5
1#
1*
1=
b1011100000110111 :
17
b11111101100000010011101100000101 /
0A
#496
03
07
0)
#501
1!
1"
b11111101100000010011101100000101 &
0#
19
0$
b11111101100000010011101100000101 +
0=
17
1>
1;
#506
07
#511
0!
0*
17
0>
0;
#516
13
b0111110011111010 ?
b0111110011111010 <
0"
b0110011000000111 '
09
1$
b0110011000000111 (
07
1A
1)
#521
b00000000000000000111110011111010 .
b0111110011111010 8
b0110011000000111 5
1#
1*
1=
b0110011000000111 :
17
b00000011100011000101111101000100 /
0A
#526
03
07
0)
#531
1!
1"
b00000011100011000101111101000100 &
0#
19
0$
b00000011100011000101111101000100 +
0=
17
1>
1;
#536
07
#541
0!
0*
17
0>
0;
#546
13
b0110100011101011 ?
b0110100011101011 <
0"
b1110010100111111 '
09
1$
b1110010100111111 (
07
1A
1)
#551
b00000000000000000110100011101011 .
b0110100011101011 8
b1110010100111111 5
1#
1*
1=
b1110010100111111 :
17
b11111111000100100101011110000101 /
0A
#556
03
07
0)
#561
1!
1"
b11111111000100100101011110000101 &
0#
19
0$
b11111111000100100101011110000101 +
0=
17
1>
1;
#566
07
#571
0!
0*
17
0>
0;
#576
13
b0111111011100101 ?
b0111111011100101 <
0"
b1111110000101101 '
09
1$
b1111110000101101 (
07
1A
1)
#581
b00000000000000000111111011100101 .
b0111111011100101 8
b1111110000101101 5
1#
1*
1=
b1111110000101101 :
17
b11111111110111100111011101010011 /
0A
#586
03
07
0)
#591
1!
1"
b11111111110111100111011101010011 &
0#
19
0$
b11111111110111100111011101010011 +
0=
17
1>
1;
#596
07
#601
0!
0*
17
0>
0;
#606
13
b0001001101011110 ?
b0001001101011110 <
0"
b1000101010100001 '
09
1$
b1000101010100001 (
07
1A
1)
#611
b00000000000000000001001101011110 .
b0001001101011110 8
b1000101010100001 5
1#
1*
1=
b1000101010100001 :
17
b11111011111010111010100000000100 /
0A
#616
03
07
0)
#621
1!
1"
b11111011111010111010100000000100 &
0#
19
0$
b11111011111010111010100000000100 +
0=
17
1>
1;
#626
07
#631
0!
0*
17
0>
0;
#636
13
b0010011000100000 ?
b0010011000100000 <
0"
b1010110010100001 '
09
1$
b1010110010100001 (
07
1A
1)
#641
b00000000000000000010011000100000 .
b0010011000100000 8
b1010110010100001 5
1#
1*
1=
b1010110010100001 :
17
b11111101000110100100011011000110 /
0A
#646
03
07
0)
#651
1!
1"
b11111101000110100100011011000110 &
0#
19
0$
b11111101000110100100011011000110 +
0=
17
1>
1;
#656
07
#661
0!
0*
17
0>
0;
#666
13
b0110101100000100 ?
b0110101100000100 <
0"
b0011101110001110 '
09
1$
b0011101110001110 (
07
1A
1)
#671
b00000000000000000110101100000100 .
b0110101100000100 8
b0011101110001110 5
1#
1*
1=
b0011101110001110 :
17
b00000010000100100101110010011000 /
0A
#676
03
07
0)
#681
1!
1"
b00000010000100100101110010011000 &
0#
19
0$
b00000010000100100101110010011000 +
0=
17
1>
1;
#686
07
#691
0!
0*
17
0>
0;
#696
13
b1011000001111110 ?
b1011000001111110 <
0"
b0010100100011001 '
09
1$
b0010100100011001 (
07
1A
1)
#701
b11111111111111111011000001111110 .
b1011000001111110 8
b0010100100011001 5
1#
1*
1=
b0010100100011001 :
17
b00000001011011010110010011110100 /
0A
#706
03
07
0)
#711
1!
1"
b00000001011011010110010011110100 &
0#
19
0$
b00000001011011010110010011110100 +
0=
17
1>
1;
#716
07
#721
0!
0*
17
0>
0;
#726
13
b0011001101000011 ?
b0011001101000011 <
0"
b1000001110101010 '
09
1$
b1000001110101010 (
07
1A
1)
#731
b00000000000000000011001101000011 .
b0011001101000011 8
b1000001110101010 5
1#
1*
1=
b1000001110101010 :
17
b11111011101011011100110111111111 /
0A
#736
03
07
0)
#741
1!
1"
b11111011101011011100110111111111 &
0#
19
0$
b11111011101011011100110111111111 +
0=
17
1>
1;
#746
07
#751
0!
0*
17
0>
0;
#756
13
b0010110111111001 ?
b0010110111111001 <
0"
b1001010101000111 '
09
1$
b1001010101000111 (
07
1A
1)
#761
b00000000000000000010110111111001 .
b0010110111111001 8
b1001010101000111 5
1#
1*
1=
b1001010101000111 :
17
b11111100010010101000001111000011 /
0A
#766
03
07
0)
#771
1!
1"
b11111100010010101000001111000011 &
0#
19
0$
b11111100010010101000001111000011 +
0=
17
1>
1;
#776
07
#781
0!
0*
17
0>
0;
#786
13
b1101000011111101 ?
b1101000011111101 <
0"
b0001011000111001 '
09
1$
b0001011000111001 (
07
1A
1)
#791
b11111111111111111101000011111101 .
b1101000011111101 8
b0001011000111001 5
1#
1*
1=
b0001011000111001 :
17
b00000000110001011001000000110011 /
0A
#796
03
07
0)
#801
1!
1"
b00000000110001011001000000110011 &
0#
19
0$
b00000000110001011001000000110011 +
0=
17
1>
1;
#806
07
#811
0!
0*
17
0>
0;
#816
13
b1001111011001011 ?
b1001111011001011 <
0"
b0111110010111001 '
09
1$
b0111110010111001 (
07
1A
1)
#821
b11111111111111111001111011001011 .
b1001111011001011 8
b0111110010111001 5
1#
1*
1=
b0111110010111001 :
17
b00000100010101010111010100000001 /
0A
#826
03
07
0)
#831
1!
1"
b00000100010101010111010100000001 &
0#
19
0$
b00000100010101010111010100000001 +
0=
17
1>
1;
#836
07
#841
0!
0*
17
0>
0;
#846
13
b1111011111111001 ?
b1111011111111001 <
0"
b1000000111001000 '
09
1$
b1000000111001000 (
07
1A
1)
#851
b11111111111111111111011111111001 .
b1111011111111001 8
b1000000111001000 5
1#
1*
1=
b1000000111001000 :
17
b11111011100111001101000110101001 /
0A
#856
03
07
0)
#861
1!
1"
b11111011100111001101000110101001 &
0#
19
0$
b11111011100111001101000110101001 +
0=
17
1>
1;
#866
07
#871
0!
0*
17
0>
0;
#876
13
b1010101011011001 ?
b1010101011011001 <
0"
b1001100000111010 '
09
1$
b1001100000111010 (
07
1A
1)
#881
b11111111111111111010101011011001 .
b1010101011011001 8
b1001100000111010 5
1#
1*
1=
b1001100000111010 :
17
b11111100011001000011111011110101 /
0A
#886
03
07
0)
#891
1!
1"
b11111100011001000011111011110101 &
0#
19
0$
b11111100011001000011111011110101 +
0=
17
1>
1;
#896
07
#901
0!
0*
17
0>
0;
#906
13
b1011011010101011 ?
b1011011010101011 <
0"
b1001110011010111 '
09
1$
b1001110011010111 (
07
1A
1)
#911
b11111111111111111011011010101011 .
b1011011010101011 8
b1001110011010111 5
1#
1*
1=
b1001110011010111 :
17
b11111100100011010101011111010101 /
0A
#916
03
07
0)
#921
1!
1"
b11111100100011010101011111010101 &
0#
19
0$
b11111100100011010101011111010101 +
0=
17
1>
1;
#926
07
#931
0!
0*
17
0>
0;
#936
13
b1101010001100010 ?
b1101010001100010 <
0"
b0110011111000111 '
09
1$
b0110011111000111 (
07
1A
1)
#941
b11111111111111111101010001100010 .
b1101010001100010 8
b0110011111000111 5
1#
1*
1=
b0110011111000111 :
17
b00000011100110110100100100101100 /
0A
#946
03
07
0)
#951
1!
1"
b00000011100110110100100100101100 &
0#
19
0$
b00000011100110110100100100101100 +
0=
17
1>
1;
#956
07
#961
0!
0*
17
0>
0;
#966
13
b0100110000011001 ?
b0100110000011001 <
0"
b0101101011100111 '
09
1$
b0101101011100111 (
07
1A
1)
#971
b00000000000000000100110000011001 .
b0100110000011001 8
b0101101011100111 5
1#
1*
1=
b0101101011100111 :
17
b00000011001010010010111110100011 /
0A
#976
03
07
0)
#981
1!
1"
b00000011001010010010111110100011 &
0#
19
0$
b00000011001010010010111110100011 +
0=
17
1>
1;
#986
07
#991
0!
0*
17
0>
0;
#996
13
b0000010100110111 ?
b0000010100110111 <
0"
b1000000110001100 '
09
1$
b1000000110001100 (
07
1A
1)
#1001
b00000000000000000000010100110111 .
b0000010100110111 8
b1000000110001100 5
1#
1*
1=
b1000000110001100 :
17
b11111011100110101100100011111111 /
0A
#1006
03
07
0)
#1011
1!
1"
b11111011100110101100100011111111 &
0#
19
0$
b11111011100110101100100011111111 +
0=
17
1>
1;
#1016
07
#1021
0!
0*
17
0>
0;
#1026
13
b1010111001111010 ?
b1010111001111010 <
0"
b0011011111001001 '
09
1$
b0011011111001001 (
07
1A
1)
#1031
b11111111111111111010111001111010 .
b1010111001111010 8
b0011011111001001 5
1#
1*
1=
b0011011111001001 :
17
b00000001111100000001010100010000 /
0A
#1036
03
07
0)
#1041
1!
1"
b00000001111100000001010100010000 &
0#
19
0$
b00000001111100000001010100010000 +
0=
17
1>
1;
#1046
07
#1051
0!
0*
17
0>
0;
#1056
13
b0000010110001001 ?
b0000010110001001 <
0"
b1000010100101001 '
09
1$
b1000010100101001 (
07
1A
1)
#1061
b00000000000000000000010110001001 .
b0000010110001001 8
b1000010100101001 5
1#
1*
1=
b1000010100101001 :
17
b11111011101110101111000001011111 /
0A
#1066
03
07
0)
#1071
1!
1"
b11111011101110101111000001011111 &
0#
19
0$
b11111011101110101111000001011111 +
0=
17
1>
1;
#1076
07
#1081
0!
0*
17
0>
0;
#1086
13
b1101110110111110 ?
b1101110110111110 <
0"
b1110000110000111 '
09
1$
b1110000110000111 (
07
1A
1)
#1091
b11111111111111111101110110111110 .
b1101110110111110 8
b1110000110000111 5
1#
1*
1=
b1110000110000111 :
17
b11111110111100001011010100001000 /
0A
#1096
03
07
0)
#1101
1!
1"
b11111110111100001011010100001000 &
0#
19
0$
b11111110111100001011010100001000 +
0=
17
1>
1;
#1106
07
#1111
0!
0*
17
0>
0;
#1116
13
b0000000100000001 ?
b0000000100000001 <
0"
b0011011011001001 '
09
1$
b0011011011001001 (
07
1A
1)
#1121
b00000000000000000000000100000001 .
b0000000100000001 8
b0011011011001001 5
1#
1*
1=
b0011011011001001 :
17
b00000001111001111000000110010111 /
0A
#1126
03
07
0)
#1131
1!
1"
b00000001111001111000000110010111 &
0#
19
0$
b00000001111001111000000110010111 +
0=
17
1>
1;
#1136
07
#1141
0!
0*
17
0>
0;
#1146
13
b1001000001110111 ?
b1001000001110111 <
0"
b0111110000101110 '
09
1$
b0111110000101110 (
07
1A
1)
#1151
b11111111111111111001000001110111 .
b1001000001110111 8
b0111110000101110 5
1#
1*
1=
b0111110000101110 :
17
b00000100010100001001000111001011 /
0A
#1156
03
07
0)
#1161
1!
1"
b00000100010100001001000111001011 &
0#
19
0$
b00000100010100001001000111001011 +
0=
17
1>
1;
#1166
07
#1171
0!
0*
17
0>
0;
#1176
13
b1110000100011011 ?
b1110000100011011 <
0"
b1001010111101111 '
09
1$
b1001010111101111 (
07
1A
1)
#1181
b11111111111111111110000100011011 .
b1110000100011011 8
b1001010111101111 5
1#
1*
1=
b1001010111101111 :
17
b11111100010100000000110111010101 /
0A
#1186
03
07
0)
#1191
1!
1"
b11111100010100000000110111010101 &
0#
19
0$
b11111100010100000000110111010101 +
0=
17
1>
1;
#1196
07
#1201
0!
0*
17
0>
0;
#1206
13
b0001010100000011 ?
b0001010100000011 <
0"
b1000010111100011 '
09
1$
b1000010111100011 (
07
1A
1)
#1211
b00000000000000000001010100000011 .
b0001010100000011 8
b1000010111100011 5
1#
1*
1=
b1000010111100011 :
17
b11111011110000010111011011110101 /
0A
#1216
03
07
0)
#1221
1!
1"
b11111011110000010111011011110101 &
0#
19
0$
b11111011110000010111011011110101 +
0=
17
1>
1;
#1226
07
#1231
0!
0*
17
0>
0;
#1236
13
b0100111010001100 ?
b0100111010001100 <
0"
b0010101001000001 '
09
1$
b0010101001000001 (
07
1A
1)
#1241
b00000000000000000100111010001100 .
b0100111010001100 8
b0010101001000001 5
1#
1*
1=
b0010101001000001 :
17
b00000001011110000100110011110010 /
0A
#1246
03
07
0)
#1251
1!
1"
b00000001011110000100110011110010 &
0#
19
0$
b00000001011110000100110011110010 +
0=
17
1>
1;
#1256
07
#1261
0!
0*
17
0>
0;
#1266
13
b0101000110101010 ?
b0101000110101010 <
0"
b1000100111101000 '
09
1$
b1000100111101000 (
07
1A
1)
#1271
b00000000000000000101000110101010 .
b0101000110101010 8
b1000100111101000 5
1#
1*
1=
b1000100111101000 :
17
b11111011111001010111100000011010 /
0A
#1276
03
07
0)
#1281
1!
1"
b11111011111001010111100000011010 &
0#
19
0$
b11111011111001010111100000011010 +
0=
17
1>
1;
#1286
07
#1291
0!
0*
17
0>
0;
#1296
13
b0110110110010000 ?
b0110110110010000 <
0"
b1111101101011110 '
09
1$
b1111101101011110 (
07
1A
1)
#1301
b00000000000000000110110110010000 .
b0110110110010000 8
b1111101101011110 5
1#
1*
1=
b1111101101011110 :
17
b11111111110101110011010000000100 /
0A
#1306
03
07
0)
#1311
1!
1"
b11111111110101110011010000000100 &
0#
19
0$
b11111111110101110011010000000100 +
0=
17
1>
1;
#1316
07
#1321
0!
0*
17
0>
0;
#1326
13
b0010010110001010 ?
b0010010110001010 <
0"
b1111111000111110 '
09
1$
b1111111000111110 (
07
1A
1)
#1331
b00000000000000000010010110001010 .
b0010010110001010 8
b1111111000111110 5
1#
1*
1=
b1111111000111110 :
17
b11111111111100001000000100111110 /
0A
#1336
03
07
0)
#1341
1!
1"
b11111111111100001000000100111110 &
0#
19
0$
b11111111111100001000000100111110 +
0=
17
1>
1;
#1346
07
#1351
0!
0*
17
0>
0;
#1356
13
b0110010111010001 ?
b0110010111010001 <
0"
b0001101001010101 '
09
1$
b0001101001010101 (
07
1A
1)
#1361
b00000000000000000110010111010001 .
b0110010111010001 8
b0001101001010101 5
1#
1*
1=
b0001101001010101 :
17
b00000000111010101011011000101111 /
0A
#1366
03
07
0)
#1371
1!
1"
b00000000111010101011011000101111 &
0#
19
0$
b00000000111010101011011000101111 +
0=
17
1>
1;
#1376
07
#1381
0!
0*
17
0>
0;
#1386
13
b0101111110000011 ?
b0101111110000011 <
0"
b1010010111100101 '
09
1$
b1010010111100101 (
07
1A
1)
#1391
b00000000000000000101111110000011 .
b0101111110000011 8
b1010010111100101 5
1#
1*
1=
b1010010111100101 :
17
b11111100110111101001001101000001 /
0A
#1396
03
07
0)
#1401
1!
1"
b11111100110111101001001101000001 &
0#
19
0$
b11111100110111101001001101000001 +
0=
17
1>
1;
#1406
07
#1411
0!
0*
17
0>
0;
#1416
13
b1111010101010100 ?
b1111010101010100 <
0"
b1001000110001000 '
09
1$
b1001000110001000 (
07
1A
1)
#1421
b11111111111111111111010101010100 .
b1111010101010100 8
b1001000110001000 5
1#
1*
1=
b1001000110001000 :
17
b11111100001010001111010110000100 /
0A
#1426
03
07
0)
#1431
1!
1"
b11111100001010001111010110000100 &
0#
19
0$
b11111100001010001111010110000100 +
0=
17
1>
1;
#1436
07
#1441
0!
0*
17
0>
0;
#1446
13
b0111100001100010 ?
b0111100001100010 <
0"
b1111000110101011 '
09
1$
b1111000110101011 (
07
1A
1)
#1451
b00000000000000000111100001100010 .
b0111100001100010 8
b1111000110101011 5
1#
1*
1=
b1111000110101011 :
17
b11111111100000001111000000000100 /
0A
#1456
03
07
0)
#1461
1!
1"
b11111111100000001111000000000100 &
0#
19
0$
b11111111100000001111000000000100 +
0=
17
1>
1;
#1466
07
#1471
0!
0*
17
0>
0;
#1476
13
b0101100111101011 ?
b0101100111101011 <
0"
b0110010101100111 '
09
1$
b0110010101100111 (
07
1A
1)
#1481
b00000000000000000101100111101011 .
b0101100111101011 8
b0110010101100111 5
1#
1*
1=
b0110010101100111 :
17
b00000011100001101010110001110101 /
0A
#1486
03
07
0)
#1491
1!
1"
b00000011100001101010110001110101 &
0#
19
0$
b00000011100001101010110001110101 +
0=
17
1>
1;
#1496
07
#1501
0!
0*
17
0>
0;
#1506
13
b1111100000111011 ?
b1111100000111011 <
0"
b0010111100011111 '
09
1$
b0010111100011111 (
07
1A
1)
#1511
b11111111111111111111100000111011 .
b1111100000111011 8
b0010111100011111 5
1#
1*
1=
b0010111100011111 :
17
b00000001101000110100011000010101 /
0A
#1516
03
07
0)
#1521
1!
1"
b00000001101000110100011000010101 &
0#
19
0$
b00000001101000110100011000010101 +
0=
17
1>
1;
#1526
07
#1531
0!
0*
17
0>
0;
#1536
13
b1110010100000110 ?
b1110010100000110 <
0"
b1101101100101010 '
09
1$
b1101101100101010 (
07
1A
1)
#1541
b11111111111111111110010100000110 .
b1110010100000110 8
b1101101100101010 5
1#
1*
1=
b1101101100101010 :
17
b11111110101110000001110011000010 /
0A
#1546
03
07
0)
#1551
1!
1"
b11111110101110000001110011000010 &
0#
19
0$
b11111110101110000001110011000010 +
0=
17
1>
1;
#1556
07
#1561
0!
0*
17
0>
0;
#1566
13
b0011110011100011 ?
b0011110011100011 <
0"
b1111100011001111 '
09
1$
b1111100011001111 (
07
1A
1)
#1571
b00000000000000000011110011100011 .
b0011110011100011 8
b1111100011001111 5
1#
1*
1=
b1111100011001111 :
17
b11111111110000000011111011011101 /
0A
#1576
03
07
0)
#1581
1!
1"
b11111111110000000011111011011101 &
0#
19
0$
b11111111110000000011111011011101 +
0=
17
1>
1;
#1586
07
#1591
0!
0*
17
0>
0;
#1596
13
b0110010111101010 ?
b0110010111101010 <
0"
b1110110101001100 '
09
1$
b1110110101001100 (
07
1A
1)
#1601
b00000000000000000110010111101010 .
b0110010111101010 8
b1110110101001100 5
1#
1*
1=
b1110110101001100 :
17
b11111111010110011111100000110010 /
0A
#1606
03
07
0)
#1611
1!
1"
b11111111010110011111100000110010 &
0#
19
0$
b11111111010110011111100000110010 +
0=
17
1>
1;
#1616
07
#1621
0!
0*
17
0>
0;
#1626
13
b0101111010000111 ?
b0101111010000111 <
0"
b1010100100000101 '
09
1$
b1010100100000101 (
07
1A
1)
#1631
b00000000000000000101111010000111 .
b0101111010000111 8
b1010100100000101 5
1#
1*
1=
b1010100100000101 :
17
b11111100111110100110000100000101 /
0A
#1636
03
07
0)
#1641
1!
1"
b11111100111110100110000100000101 &
0#
19
0$
b11111100111110100110000100000101 +
0=
17
1>
1;
#1646
07
#1651
0!
0*
17
0>
0;
#1656
13
b0000010101100111 ?
b0000010101100111 <
0"
b0000010111011111 '
09
1$
b0000010111011111 (
07
1A
1)
#1661
b00000000000000000000010101100111 .
b0000010101100111 8
b0000010111011111 5
1#
1*
1=
b0000010111011111 :
17
b00000000001101000100001111000001 /
0A
#1666
03
07
0)
#1671
1!
1"
b00000000001101000100001111000001 &
0#
19
0$
b00000000001101000100001111000001 +
0=
17
1>
1;
#1676
07
#1681
0!
0*
17
0>
0;
#1686
13
b0110100001100011 ?
b0110100001100011 <
0"
b0110100010001010 '
09
1$
b0110100010001010 (
07
1A
1)
#1691
b00000000000000000110100001100011 .
b0110100001100011 8
b0110100010001010 5
1#
1*
1=
b0110100010001010 :
17
b00000011101000101010010001011111 /
0A
#1696
03
07
0)
#1701
1!
1"
b00000011101000101010010001011111 &
0#
19
0$
b00000011101000101010010001011111 +
0=
17
1>
1;
#1706
07
#1711
0!
0*
17
0>
0;
#1716
13
b0010111101111010 ?
b0010111101111010 <
0"
b0011111101101010 '
09
1$
b0011111101101010 (
07
1A
1)
#1721
b00000000000000000010111101111010 .
b0010111101111010 8
b0011111101101010 5
1#
1*
1=
b0011111101101010 :
17
b00000010001101000111100010110110 /
0A
#1726
03
07
0)
#1731
1!
1"
b00000010001101000111100010110110 &
0#
19
0$
b00000010001101000111100010110110 +
0=
17
1>
1;
#1736
07
#1741
0!
0*
17
0>
0;
#1746
13
b1001001111110001 ?
b1001001111110001 <
0"
b0111101000111110 '
09
1$
b0111101000111110 (
07
1A
1)
#1751
b11111111111111111001001111110001 .
b1001001111110001 8
b0111101000111110 5
1#
1*
1=
b0111101000111110 :
17
b00000100001111110101011110100101 /
0A
#1756
03
07
0)
#1761
1!
1"
b00000100001111110101011110100101 &
0#
19
0$
b00000100001111110101011110100101 +
0=
17
1>
1;
#1766
07
#1771
0!
0*
17
0>
0;
#1776
13
b0010100111111111 ?
b0010100111111111 <
0"
b0110101111011111 '
09
1$
b0110101111011111 (
07
1A
1)
#1781
b00000000000000000010100111111111 .
b0010100111111111 8
b0110101111011111 5
1#
1*
1=
b0110101111011111 :
17
b00000011110000000000110001011001 /
0A
#1786
03
07
0)
#1791
1!
1"
b00000011110000000000110001011001 &
0#
19
0$
b00000011110000000000110001011001 +
0=
17
1>
1;
#1796
07
#1801
0!
0*
17
0>
0;
#1806
13
b1100110111010101 ?
b1100110111010101 <
0"
b0100001010000011 '
09
1$
b0100001010000011 (
07
1A
1)
#1811
b11111111111111111100110111010101 .
b1100110111010101 8
b0100001010000011 5
1#
1*
1=
b0100001010000011 :
17
b00000010010011111010011110000111 /
0A
#1816
03
07
0)
#1821
1!
1"
b00000010010011111010011110000111 &
0#
19
0$
b00000010010011111010011110000111 +
0=
17
1>
1;
#1826
07
#1831
0!
0*
17
0>
0;
#1836
13
b0001111100000011 ?
b0001111100000011 <
0"
b0111100011011101 '
09
1$
b0111100011011101 (
07
1A
1)
#1841
b00000000000000000001111100000011 .
b0001111100000011 8
b0111100011011101 5
1#
1*
1=
b0111100011011101 :
17
b00000100001100111001110110010001 /
0A
#1846
03
07
0)
#1851
1!
1"
b00000100001100111001110110010001 &
0#
19
0$
b00000100001100111001110110010001 +
0=
17
1>
1;
#1856
07
#1861
0!
0*
17
0>
0;
